{
  // Server authentication info
  "servers": [
    {
      "host": "54.154.62.194",
      "username": "ubuntu",
      //"password": "password"
      // or pem file (ssh based authentication)
      "pem": "~/Dropbox/amazon/arturs.lataks.pem"
    }
  ],

  // Install MongoDB in the server, does not destroy local MongoDB on future setup
  "setupMongo": true,

  // WARNING: Node.js is required! Only skip if you already have Node.js installed on server.
  "setupNode": true,

  // WARNING: If nodeVersion omitted will setup 0.10.31 by default. Do not use v, only version number.
  "nodeVersion": "0.10.31",

  // Install PhantomJS in the server
  "setupPhantom": true,

  // Application name (No spaces)
  "appName": "simple",

  // Location of app (local directory)
  "app": "/var/www/simple",

  // Configure environment
  "env": {
    "ROOT_URL": "http://54.154.62.194"
  },

  // Meteor Up checks if the app comes online just after the deployment
  // before mup checks that, it will wait for no. of seconds configured below
  "deployCheckWaitTime": 15
}
